89377 398841 443
445798 382 449
115654 730795 509
19450 214134 383
603487 898513 525
716367 50561 509
773409 553113 509
713095 367561 509
784060 437513 509
533722 290626 470
260723 292455 407
260386 155654 443
863100 977133 507
240757 228079 443
436171 852673 525
495787 276217 449
529639 733820 509
704558 693566 411
284459 314989 389
536441 225988 470
49335 334565 443
788372 862378 525
282051 264184 407
281999 722553 509
635439 930773 525
870492 27534 525
223852 155686 386
954574 104391 525
384823 94652 443
986006 895949 507
346603 874631 525
270492 596420 470
913587 440992 525
593427 532122 452
746713 807605 468
556182 900632 525
906887 405036 525
462397 907157 525
846935 797644 525
420245 785863 509
747059 598847 509
426964 642685 509
838679 305849 525
679251 41137 509
431802 367262 449
359287 475370 449
144096 93895 375
605695 482067 470
271992 309399 389
836516 736717 468
168388 455459 449
467882 150506 449
204607 339857 443
794493 147004 509
402275 807951 509
310330 747362 509
759541 546452 509
652171 547376 509
943485 639664 525
419138 408014 449
998363 248751 525
664854 444660 509
52228 310631 443
544280 102869 470
558755 64042 470
991772 107345 525
809245 533642 509
10075 552391 470
984066 585164 525
248531 425514 449
593396 548101 434
686513 195209 509
965678 967684 365
308561 562379 470
48121 323947 443
983900 829722 525
705598 823234 468
534686 188704 470
960091 246591 525
582449 454305 470
533512 93899 470
485662 180048 449
221756 666343 509
133510 136747 344
59435 127597 354
184476 790825 509
395382 684433 509
283676 915082 525
495480 775621 509
381513 708462 509
649269 640545 416
266177 704204 509
730595 550669 509
508033 53997 449
624987 697587 509
692589 944222 525
317408 556569 470
929136 571010 525
253368 567369 470
867279 544850 525
672478 457167 509
795379 608247 509
141523 319394 443
849394 41457 525
967574 99726 525
945129 533170 525
299171 689358 509
286827 531316 470
585216 193355 470
588482 255315 470
270877 392658 441
965221 509176 525
747791 3226 509
747209 611480 509
579906 96026 470
191413 964794 525
841026 902557 445
360218 807210 509
595764 412272 470
636336 116038 509
492226 720954 509
654002 80227 509
133947 548173 470
186598 933117 525
625244 93841 470
921468 543432 525
967481 842271 507
257277 902556 525
991480 63541 525
252408 760539 509
680830 286616 509
984479 269068 525
343738 690877 509
168069 620529 470
814427 236132 509
320149 606751 470
310244 398470 441
268575 108064 443
900462 980236 507
702039 947000 525
367469 512036 470
614268 785596 509
476787 641671 509
143466 297680 443
11209 496750 449
456694 117758 449
898007 732788 525
407534 237556 441
891616 481807 525
965792 939578 414
