1 10 20
100 200 125
201 210 89
900 1000 174
64134 211359 383
483871 509592 426
939373 1000000 507
116051 102563 354
305595 341831 384
796025 816543 468
797597 812701 406
332356 318791 384
62888 122849 354
64223 85217 351
245720 302461 407
414993 240352 449
256648 371400 441
351170 273347 441
275699 317139 389
499240 410600 444
149446 246183 443
985622 972357 427
861461 824585 525
746771 705214 424
224493 166197 386
47240 132080 354
523310 389945 470
613917 520669 452
687348 750665 504
213927 386933 443
378749 378325 317
856218 1000000 507
923455 957990 507
153112 110871 375
850271 650996 525
710340 685070 504
853441 940194 507
243847 127661 443
320205 385957 441
719806 842581 525
807095 862609 525
902481 944104 507
494598 463952 426
142287 246360 443
874285 1000000 507
431813 396662 449
382831 286032 441
370158 365888 392
925324 915258 445
623698 682351 509
629701 670718 442
873862 820830 525
20635 1 279
258424 96304 443
291671 202109 443
855175 809540 525
230302 190188 386
506529 479879 426
983346 871455 507
938985 927573 445
435674 381583 449
481784 392533 449
872963 858228 432
761863 663067 504
287390 327797 389
830318 880617 525
854632 902315 445
518466 552875 452
135228 111764 349
720759 701888 504
430711 442547 400
606647 475439 470
44269 5227 324
1674 1 182
547425 396829 470
526622 505981 470
272193 190368 443
463593 430596 444
921625 936165 476
446028 476751 444
843605 783056 525
786227 788734 406
134108 99566 354
600251 597084 372
315889 327416 384
619681 611437 447
737925 740008 424
539348 435849 470
820794 876979 525
574828 614687 434
827271 858718 525
918641 1000000 507
856230 858269 375
33005 79902 351
972446 1000000 440
498362 503254 426
138754 3492 354
338745 319941 384
703 1 171
44911 112754 354
661097 737480 504
524423 562994 452
515324 513563 395
19013 80841 351
425784 289562 449
135007 38361 354
36630 73568 340
941821 843497 507
954889 1000000 458
428315 424936 374
586940 471724 470
431668 466267 444
442385 498170 444
377809 348843 423
919509 820606 525
928139 914546 476
708580 672727 504
845974 796630 525
819870 843234 525
730304 614200 509
474756 388806 449
848025 882804 432
500598 577971 470
780258 635986 504
633372 518476 509
577392 436671 470
787225 752482 468
357092 448993 449
67135 18409 340
24437 107496 354
748532 542587 509
377005 244106 441
196339 95906 383
952955 1000000 458
941396 1000000 458
17956 33749 308
437000 423104 418
420594 641640 509
793540 839878 525
112079 28296 354
726948 766526 424
41853 50664 314
551893 521838 452
465850 386610 449
101810 156023 375
192089 251077 443
319881 327660 384
295792 328335 384
546898 546340 452
620449 521173 452
58894 28264 340
350918 276567 441
317666 222585 443
624836 648325 509
672445 555184 509
620956 720948 509
912230 1000000 507
150734 265106 443
694349 688076 442
628013 540623 509
685119 729014 504
42338 137991 354
385396 434032 449
413196 465631 444
111033 119126 349
49985 1 324
931260 946346 507
162754 234132 443
533980 492051 470
730542 750185 424
70026 125196 354
948116 1000000 458
709532 800063 468
486149 376054 449
775477 762196 468
958160 928109 507
30020 1 308
297563 361637 441
315186 327551 384
719623 642348 504
682073 665352 398
606111 583906 403
224298 338878 443
31028 11845 308
392317 520695 470
704503 676752 442
786964 685543 504
487662 577757 470
499264 467749 426
687275 580304 509
157651 195343 370
895440 993796 507
274752 380648 441
850253 894280 445
561678 506135 470
111323 1 354
194803 278370 443
928993 818695 525
