1 10 20
100 200 125
201 210 89
900 1000 174
1 1 1
20 30 112
1000 1200 182
2500 2501 28
30 20 112
1 20 21
1 40 112
1 80 116
1 160 122
1 320 131
161 320 131
201 201 19
201 202 27
550 560 137
708 720 65
10 100 119
100 10 119
51 100 119
2 2 2
4 4 3
8 8 4
16 16 5
5 5 6
10 10 7
3 3 8
20 20 8
40 40 9
13 13 10
26 26 11
52 52 12
17 17 13
34 34 14
11 11 15
22 22 16
7 7 17
14 14 18
28 28 19
80 80 10
160 160 11
53 53 12
106 106 13
35 35 14
70 70 15
23 23 16
46 46 17
15 15 18
30 30 19
60 60 20
120 120 21
1 200 125
200 300 128
300 400 144
400 500 142
500 600 137
600 700 145
700 800 171
800 900 179
900 1000 174
1000 1100 169
1100 1200 182
1 1200 182
601 1200 182
1200 2000 180
2000 3000 217
3000 4000 238
4000 5000 215
5000 6000 236
6000 7000 262
7000 8000 252
8000 9000 247
9000 10000 260
1 10000 262
5001 10000 262
10000 11000 268
11000 12000 250
12000 13000 263
13000 14000 276
14000 15000 271
15000 16000 271
16000 17000 266
17000 18000 279
18000 19000 261
19000 20000 274
10000 20000 279
1 20000 279
10001 20000 279
20000 21000 256
21000 22000 269
22000 23000 269
23000 24000 282
24000 25000 264
25000 26000 264
26000 27000 308
27000 28000 259
28000 29000 259
29000 30000 272
20000 30000 308
1 30000 308
15001 30000 308
30000 31000 272
31000 32000 285
32000 33000 267
33000 34000 267
34000 35000 311
35000 36000 324
36000 37000 249
37000 38000 306
38000 39000 244
39000 40000 306
1 40000 324
50000 51000 278
51000 52000 309
52000 53000 340
53000 54000 322
54000 55000 260
55000 56000 260
56000 57000 322
57000 58000 304
58000 59000 273
59000 60000 304
50000 60000 340
1 60000 340
150000 151000 370
